…
```r
data_url <- "http://gattonweb.uky.edu/sheather/book/docs/datasets/GreatestGivers.xls"

download.file(url = data_url, destfile = here("test", "GreatestGivers.xls"))

file_name <- basename(data_url)

philanthropists <- read_excel(here("test", file_name), trim_ws =TRUE)

philanthropists
```

```
## # A tibble: 50 x 8
##    Rank  Name  Background `2003-07 Given … Causes `Estimated lift…
##    <chr> <chr> <chr>      <chr>            <chr>             <dbl>
##  1 1     Warr… Berkshire…  40,650          Healt…            40780
##  2 2     Bill… Microsoft…  3,519           Globa…            28144
##  3 3     Geor… Oil and g…  2,271           Pover…             2522
##  4 4     Geor… Investor    2,109           Open …             6401
##  5 5     Gord… Intel co-…  2,067           Envir…             7404
##  6 6     Walt… Family of…  1,475           Educa…             2015
##  7 7     Herb… Golden We…  1,368           Medic…             1389
##  8 8     Eli … SunAmeric…  1,216           Publi…             2286
##  9 9     Dona… Real esta…  915             Educa…             1326
## 10 10    Jon … Huntsman …  800             Cance…             1233
## # … with 40 more rows, and 2 more variables: `Net Worth` <chr>,
## #   `Giving%` <chr>
```
…
```r
mri_long <- mri %>% 
  pivot_longer(cols = `Slice 1`:`Slice 8`,
               names_to = "slice_no",
               values_to = "value")

mri_long
```

```
## # A tibble: 88 x 5
##    `Animal ID`      Volume `Treatment Group` slice_no value
##    <chr>             <dbl> <chr>             <chr>    <dbl>
##  1 HerS18Bs01.BS1/8   523. Avastin           Slice 1  11.1 
##  2 HerS18Bs01.BS1/8   523. Avastin           Slice 2  14.7 
##  3 HerS18Bs01.BS1/8   523. Avastin           Slice 3  16.5 
##  4 HerS18Bs01.BS1/8   523. Avastin           Slice 4  14.3 
##  5 HerS18Bs01.BS1/8   523. Avastin           Slice 5  18.9 
##  6 HerS18Bs01.BS1/8   523. Avastin           Slice 6  22.5 
##  7 HerS18Bs01.BS1/8   523. Avastin           Slice 7  19.0 
##  8 HerS18Bs01.BS1/8   523. Avastin           Slice 8  18.8 
##  9 HerS18Bs02.BS1/7   400. Herceptin         Slice 1  10.3 
## 10 HerS18Bs02.BS1/7   400. Herceptin         Slice 2   7.90
## # … with 78 more rows
```
